{
  "attributes": [
        {
            "value": "letter"
        },
        {
            "trait_type": "text",
            "value": "y"
        },
        {
            "display_type": "date",
            "trait_type": "creation",
            "value": 1586557917
        }
    ],
    "background_color": "000000",
    "description": "Amazing and unique Neon Sign to include in your virtual world",
    "external_url": "https://t.me/NeonBuzzDApp/3",
    "image": "ipfs://Qmeq6TJ94JnZuVkoQph9GTPwdzBLVLWbYnGcKZgJCt7SGV",
    "name": "Letter Y - Neon Sign"
}
